<?xml version="1.0" encoding="utf-8"?>
<!DOCTYPE eagle SYSTEM "eagle.dtd">
<eagle version="7.6.0">
<drawing>
<settings>
<setting alwaysvectorfont="no"/>
<setting verticaltext="up"/>
</settings>
<grid distance="0.05" unitdist="inch" unit="inch" style="lines" multiple="1" display="yes" altdistance="0.005" altunitdist="inch" altunit="inch"/>
<layers>
<layer number="1" name="Top" color="4" fill="1" visible="yes" active="yes"/>
<layer number="16" name="Bottom" color="1" fill="1" visible="yes" active="yes"/>
<layer number="17" name="Pads" color="2" fill="1" visible="yes" active="yes"/>
<layer number="18" name="Vias" color="2" fill="1" visible="yes" active="yes"/>
<layer number="19" name="Unrouted" color="6" fill="1" visible="yes" active="yes"/>
<layer number="20" name="Dimension" color="15" fill="1" visible="yes" active="yes"/>
<layer number="21" name="tPlace" color="16" fill="1" visible="yes" active="yes"/>
<layer number="22" name="bPlace" color="14" fill="1" visible="yes" active="yes"/>
<layer number="23" name="tOrigins" color="15" fill="1" visible="yes" active="yes"/>
<layer number="24" name="bOrigins" color="15" fill="1" visible="yes" active="yes"/>
<layer number="25" name="tNames" color="7" fill="1" visible="no" active="yes"/>
<layer number="26" name="bNames" color="7" fill="1" visible="no" active="yes"/>
<layer number="27" name="tValues" color="7" fill="1" visible="no" active="yes"/>
<layer number="28" name="bValues" color="7" fill="1" visible="no" active="yes"/>
<layer number="29" name="tStop" color="7" fill="3" visible="no" active="yes"/>
<layer number="30" name="bStop" color="7" fill="6" visible="no" active="yes"/>
<layer number="31" name="tCream" color="7" fill="4" visible="no" active="yes"/>
<layer number="32" name="bCream" color="7" fill="5" visible="no" active="yes"/>
<layer number="39" name="tKeepout" color="4" fill="11" visible="no" active="yes"/>
<layer number="40" name="bKeepout" color="1" fill="11" visible="no" active="yes"/>
<layer number="41" name="tRestrict" color="4" fill="10" visible="no" active="yes"/>
<layer number="42" name="bRestrict" color="1" fill="10" visible="no" active="yes"/>
<layer number="43" name="vRestrict" color="2" fill="10" visible="no" active="yes"/>
<layer number="44" name="Drills" color="7" fill="1" visible="no" active="yes"/>
<layer number="45" name="Holes" color="7" fill="1" visible="yes" active="yes"/>
<layer number="46" name="Milling" color="3" fill="1" visible="no" active="yes"/>
<layer number="51" name="tDocu" color="6" fill="1" visible="yes" active="yes"/>
<layer number="52" name="bDocu" color="7" fill="1" visible="no" active="yes"/>
<layer number="50" name="dxf" color="7" fill="1" visible="no" active="no"/>
<layer number="33" name="tFinish" color="6" fill="3" visible="no" active="no"/>
<layer number="34" name="bFinish" color="6" fill="6" visible="no" active="no"/>
<layer number="35" name="tGlue" color="7" fill="4" visible="no" active="no"/>
<layer number="36" name="bGlue" color="7" fill="5" visible="no" active="no"/>
<layer number="37" name="tTest" color="7" fill="1" visible="no" active="no"/>
<layer number="38" name="bTest" color="7" fill="1" visible="no" active="no"/>
<layer number="47" name="Measures" color="7" fill="1" visible="no" active="no"/>
<layer number="48" name="Document" color="7" fill="1" visible="no" active="no"/>
<layer number="49" name="Reference" color="7" fill="1" visible="no" active="no"/>
<layer number="53" name="tGND_GNDA" color="7" fill="1" visible="no" active="no"/>
<layer number="54" name="bGND_GNDA" color="7" fill="1" visible="no" active="no"/>
<layer number="56" name="wert" color="7" fill="1" visible="no" active="no"/>
<layer number="57" name="tCAD" color="7" fill="1" visible="no" active="no"/>
<layer number="58" name="bCAD" color="11" fill="1" visible="no" active="no"/>
<layer number="90" name="Modules" color="5" fill="1" visible="no" active="no"/>
<layer number="91" name="Nets" color="2" fill="1" visible="no" active="no"/>
<layer number="92" name="Busses" color="1" fill="1" visible="no" active="no"/>
<layer number="93" name="Pins" color="2" fill="1" visible="no" active="no"/>
<layer number="94" name="Symbols" color="4" fill="1" visible="no" active="no"/>
<layer number="95" name="Names" color="7" fill="1" visible="no" active="no"/>
<layer number="96" name="Values" color="7" fill="1" visible="no" active="no"/>
<layer number="97" name="Info" color="7" fill="1" visible="no" active="no"/>
<layer number="98" name="Guide" color="6" fill="1" visible="no" active="no"/>
<layer number="99" name="SpiceOrder" color="7" fill="1" visible="no" active="no"/>
<layer number="100" name="Release" color="7" fill="1" visible="no" active="no"/>
<layer number="101" name="Heatsink" color="7" fill="1" visible="no" active="no"/>
<layer number="102" name="tMarkings" color="7" fill="1" visible="no" active="no"/>
<layer number="103" name="bMarkings" color="7" fill="1" visible="no" active="no"/>
<layer number="104" name="Name" color="7" fill="1" visible="no" active="no"/>
<layer number="105" name="tPlate" color="7" fill="1" visible="no" active="no"/>
<layer number="106" name="bPlate" color="7" fill="1" visible="no" active="no"/>
<layer number="107" name="Crop" color="7" fill="1" visible="no" active="no"/>
<layer number="108" name="tplace-old" color="10" fill="1" visible="no" active="no"/>
<layer number="109" name="ref-old" color="11" fill="1" visible="no" active="no"/>
<layer number="110" name="bBPL" color="7" fill="1" visible="no" active="no"/>
<layer number="111" name="MPL" color="7" fill="1" visible="no" active="no"/>
<layer number="112" name="tSilk" color="7" fill="1" visible="no" active="no"/>
<layer number="113" name="ReferenceLS" color="7" fill="1" visible="no" active="no"/>
<layer number="114" name="FRNTMAAT1" color="7" fill="1" visible="no" active="no"/>
<layer number="115" name="FRNTMAAT2" color="7" fill="1" visible="no" active="no"/>
<layer number="116" name="Patch_BOT" color="7" fill="1" visible="no" active="no"/>
<layer number="117" name="BACKMAAT1" color="7" fill="1" visible="no" active="no"/>
<layer number="118" name="Rect_Pads" color="7" fill="1" visible="no" active="no"/>
<layer number="119" name="KAP_TEKEN" color="7" fill="1" visible="no" active="no"/>
<layer number="120" name="KAP_MAAT1" color="7" fill="1" visible="no" active="no"/>
<layer number="121" name="_layer121" color="7" fill="1" visible="no" active="no"/>
<layer number="122" name="_bplace" color="7" fill="1" visible="no" active="no"/>
<layer number="123" name="tTestmark" color="7" fill="1" visible="no" active="no"/>
<layer number="124" name="bTestmark" color="7" fill="1" visible="no" active="no"/>
<layer number="125" name="_tNames" color="7" fill="1" visible="no" active="no"/>
<layer number="126" name="_bNames" color="7" fill="1" visible="no" active="no"/>
<layer number="127" name="_tValues" color="7" fill="1" visible="no" active="no"/>
<layer number="128" name="_bValues" color="7" fill="1" visible="no" active="no"/>
<layer number="129" name="top_silk" color="7" fill="1" visible="no" active="no"/>
<layer number="130" name="SMDSTROOK" color="7" fill="1" visible="no" active="no"/>
<layer number="131" name="tAdjust" color="7" fill="1" visible="no" active="no"/>
<layer number="132" name="bAdjust" color="7" fill="1" visible="no" active="no"/>
<layer number="133" name="bottom_silk" color="7" fill="1" visible="no" active="no"/>
<layer number="144" name="Drill_legend" color="7" fill="1" visible="no" active="no"/>
<layer number="150" name="References" color="7" fill="1" visible="no" active="no"/>
<layer number="151" name="HeatSink" color="7" fill="1" visible="no" active="no"/>
<layer number="152" name="_bDocu" color="7" fill="1" visible="no" active="no"/>
<layer number="153" name="FabDoc1" color="7" fill="1" visible="no" active="no"/>
<layer number="154" name="FabDoc2" color="7" fill="1" visible="no" active="no"/>
<layer number="155" name="FabDoc3" color="7" fill="1" visible="no" active="no"/>
<layer number="199" name="Contour" color="7" fill="1" visible="no" active="no"/>
<layer number="200" name="200bmp" color="7" fill="1" visible="no" active="no"/>
<layer number="201" name="201bmp" color="7" fill="1" visible="no" active="no"/>
<layer number="202" name="202bmp" color="7" fill="1" visible="no" active="no"/>
<layer number="203" name="203bmp" color="7" fill="1" visible="no" active="no"/>
<layer number="204" name="204bmp" color="7" fill="1" visible="no" active="no"/>
<layer number="205" name="205bmp" color="7" fill="1" visible="no" active="no"/>
<layer number="206" name="206bmp" color="7" fill="1" visible="no" active="no"/>
<layer number="207" name="207bmp" color="7" fill="1" visible="no" active="no"/>
<layer number="208" name="208bmp" color="7" fill="1" visible="no" active="no"/>
<layer number="209" name="209bmp" color="7" fill="1" visible="no" active="no"/>
<layer number="210" name="210bmp" color="7" fill="1" visible="no" active="no"/>
<layer number="211" name="211bmp" color="7" fill="1" visible="no" active="no"/>
<layer number="212" name="212bmp" color="7" fill="1" visible="no" active="no"/>
<layer number="213" name="213bmp" color="7" fill="1" visible="no" active="no"/>
<layer number="214" name="214bmp" color="7" fill="1" visible="no" active="no"/>
<layer number="215" name="215bmp" color="7" fill="1" visible="no" active="no"/>
<layer number="216" name="216bmp" color="7" fill="1" visible="no" active="no"/>
<layer number="217" name="217bmp" color="18" fill="1" visible="no" active="no"/>
<layer number="218" name="218bmp" color="19" fill="1" visible="no" active="no"/>
<layer number="219" name="219bmp" color="20" fill="1" visible="no" active="no"/>
<layer number="220" name="220bmp" color="21" fill="1" visible="no" active="no"/>
<layer number="221" name="221bmp" color="22" fill="1" visible="no" active="no"/>
<layer number="222" name="222bmp" color="23" fill="1" visible="no" active="no"/>
<layer number="223" name="223bmp" color="24" fill="1" visible="no" active="no"/>
<layer number="224" name="224bmp" color="25" fill="1" visible="no" active="no"/>
<layer number="225" name="225bmp" color="7" fill="1" visible="no" active="no"/>
<layer number="226" name="226bmp" color="7" fill="1" visible="no" active="no"/>
<layer number="227" name="227bmp" color="7" fill="1" visible="no" active="no"/>
<layer number="228" name="228bmp" color="7" fill="1" visible="no" active="no"/>
<layer number="229" name="229bmp" color="7" fill="1" visible="no" active="no"/>
<layer number="230" name="230bmp" color="7" fill="1" visible="no" active="no"/>
<layer number="231" name="Eagle3D_PG1" color="7" fill="1" visible="no" active="no"/>
<layer number="232" name="Eagle3D_PG2" color="7" fill="1" visible="no" active="no"/>
<layer number="233" name="Eagle3D_PG3" color="7" fill="1" visible="no" active="no"/>
<layer number="248" name="Housing" color="7" fill="1" visible="no" active="no"/>
<layer number="249" name="Edge" color="7" fill="1" visible="no" active="no"/>
<layer number="250" name="Descript" color="3" fill="1" visible="no" active="no"/>
<layer number="251" name="SMDround" color="12" fill="11" visible="no" active="no"/>
<layer number="254" name="OrgLBR" color="7" fill="1" visible="no" active="no"/>
<layer number="255" name="Accent" color="7" fill="1" visible="no" active="no"/>
</layers>
<board>
<plain>
<wire x1="0" y1="0" x2="0" y2="25.4" width="0" layer="20"/>
<wire x1="0" y1="25.4" x2="50.8" y2="25.4" width="0" layer="20"/>
<wire x1="50.8" y1="0" x2="50.8" y2="25.4" width="0" layer="20"/>
<rectangle x1="44.196" y1="21.59" x2="50.546" y2="24.13" layer="1"/>
<rectangle x1="42.926" y1="1.27" x2="50.546" y2="2.54" layer="1"/>
<rectangle x1="42.926" y1="3.81" x2="50.546" y2="5.08" layer="1"/>
<hole x="25.4" y="19.05" drill="2.794"/>
<rectangle x1="0" y1="17.78" x2="8.89" y2="19.05" layer="1"/>
<rectangle x1="0" y1="15.24" x2="8.89" y2="16.51" layer="1"/>
<rectangle x1="0" y1="12.7" x2="8.89" y2="13.97" layer="1"/>
<rectangle x1="0" y1="10.16" x2="8.89" y2="11.43" layer="1"/>
<rectangle x1="0" y1="7.62" x2="8.89" y2="8.89" layer="1"/>
<rectangle x1="0" y1="5.08" x2="8.89" y2="6.35" layer="1"/>
<rectangle x1="0" y1="2.54" x2="8.89" y2="3.81" layer="1"/>
<wire x1="0" y1="0" x2="50.8" y2="0" width="0" layer="20"/>
<rectangle x1="28.702" y1="16.256" x2="32.766" y2="17.018" layer="1"/>
<rectangle x1="28.702" y1="14.478" x2="32.766" y2="15.24" layer="1"/>
<rectangle x1="34.544" y1="6.35" x2="35.814" y2="9.906" layer="1"/>
<rectangle x1="28.956" y1="6.35" x2="30.226" y2="7.62" layer="1"/>
<rectangle x1="31.75" y1="4.572" x2="33.528" y2="5.588" layer="1"/>
<hole x="44.45" y="12.7" drill="3.81"/>
<text x="40.64" y="4.318" size="0.508" layer="25" font="vector" ratio="15">PA05</text>
<text x="40.64" y="1.778" size="0.508" layer="25" font="vector" ratio="15">PA04</text>
<text x="3.302" y="1.778" size="0.508" layer="25" font="vector" ratio="15">PA25</text>
<text x="3.302" y="4.318" size="0.508" layer="25" font="vector" ratio="15">PA24</text>
<text x="3.302" y="6.858" size="0.508" layer="25" font="vector" ratio="15">PA15</text>
<text x="3.302" y="9.398" size="0.508" layer="25" font="vector" ratio="15">PA14</text>
<text x="3.302" y="11.938" size="0.508" layer="25" font="vector" ratio="15">PA09</text>
<text x="3.302" y="14.478" size="0.508" layer="25" font="vector" ratio="15">PA08</text>
<text x="3.302" y="17.018" size="0.508" layer="25" font="vector" ratio="15">PA02</text>
<text x="17.907" y="14.732" size="0.508" layer="25" font="vector" ratio="15" rot="R180">SAMD10</text>
<text x="48.514" y="24.13" size="0.508" layer="25" font="vector" ratio="15">5V</text>
<text x="48.514" y="17.526" size="0.508" layer="25" font="vector" ratio="15">GND</text>
<text x="42.672" y="19.812" size="0.508" layer="25" font="vector" ratio="15">3.3V</text>
<text x="6.604" y="21.336" size="0.508" layer="25" font="vector" ratio="15" rot="R90">GND</text>
<text x="28.448" y="17.272" size="0.508" layer="25" font="vector" ratio="15">SWDIO</text>
<text x="28.448" y="13.716" size="0.508" layer="25" font="vector" ratio="15">SWDCLK</text>
<text x="29.718" y="4.572" size="0.508" layer="25" font="vector" ratio="15">NRST</text>
<rectangle x1="0" y1="2.54" x2="8.89" y2="3.81" layer="29"/>
<rectangle x1="0" y1="5.08" x2="8.89" y2="6.35" layer="29"/>
<rectangle x1="0" y1="7.62" x2="8.89" y2="8.89" layer="29"/>
<rectangle x1="0" y1="10.16" x2="8.89" y2="11.43" layer="29"/>
<rectangle x1="0" y1="12.7" x2="8.89" y2="13.97" layer="29"/>
<rectangle x1="0" y1="15.24" x2="8.89" y2="16.51" layer="29"/>
<rectangle x1="0" y1="17.78" x2="8.89" y2="19.05" layer="29"/>
<rectangle x1="44.196" y1="21.59" x2="50.546" y2="24.13" layer="29"/>
<rectangle x1="44.196" y1="18.542" x2="50.546" y2="21.082" layer="29"/>
<rectangle x1="0.635" y1="19.558" x2="14.986" y2="24.511" layer="29"/>
<rectangle x1="28.702" y1="16.256" x2="32.766" y2="17.018" layer="29"/>
<rectangle x1="28.702" y1="14.478" x2="32.766" y2="15.24" layer="29"/>
<rectangle x1="42.926" y1="1.27" x2="50.546" y2="2.54" layer="29"/>
<rectangle x1="42.926" y1="3.81" x2="50.546" y2="5.08" layer="29"/>
<rectangle x1="42.926" y1="6.35" x2="50.546" y2="7.62" layer="29"/>
<rectangle x1="28.956" y1="6.35" x2="30.226" y2="7.62" layer="29"/>
<rectangle x1="29.083" y1="8.636" x2="32.512" y2="9.398" layer="1"/>
<rectangle x1="29.083" y1="8.636" x2="32.512" y2="9.398" layer="29"/>
</plain>
<libraries>
<library name="atsamd10c14a">
<packages>
<package name="SO014">
<wire x1="4.8768" y1="2.1463" x2="-3.6068" y2="2.1463" width="0.1524" layer="21"/>
<wire x1="4.8768" y1="-2.1463" x2="5.2578" y2="-1.7653" width="0.1524" layer="21" curve="90"/>
<wire x1="-3.9878" y1="1.7653" x2="-3.6068" y2="2.1463" width="0.1524" layer="21" curve="-90"/>
<wire x1="4.8768" y1="2.1463" x2="5.2578" y2="1.7653" width="0.1524" layer="21" curve="-90"/>
<wire x1="-3.9878" y1="-1.7653" x2="-3.6068" y2="-2.1463" width="0.1524" layer="21" curve="90"/>
<wire x1="-3.6068" y1="-2.1463" x2="4.8768" y2="-2.1463" width="0.1524" layer="21"/>
<wire x1="5.2578" y1="-1.7653" x2="5.2578" y2="1.7653" width="0.1524" layer="21"/>
<wire x1="-3.9878" y1="1.7653" x2="-3.9878" y2="1.27" width="0.1524" layer="21"/>
<wire x1="-3.9878" y1="1.27" x2="-3.9878" y2="-1.27" width="0.1524" layer="21"/>
<wire x1="-3.9878" y1="-1.27" x2="-3.9878" y2="-1.7653" width="0.1524" layer="21"/>
<wire x1="-3.9878" y1="1.27" x2="-3.9878" y2="-1.27" width="0.1524" layer="21" curve="-180"/>
<smd name="1" x="-3.175" y="-2.8" dx="0.6" dy="1.2" layer="1"/>
<smd name="2" x="-1.905" y="-2.8" dx="0.6" dy="1.2" layer="1"/>
<smd name="3" x="-0.635" y="-2.8" dx="0.6" dy="1.2" layer="1"/>
<smd name="4" x="0.635" y="-2.8" dx="0.6" dy="1.2" layer="1"/>
<smd name="5" x="1.905" y="-2.8" dx="0.6" dy="1.2" layer="1"/>
<smd name="6" x="3.175" y="-2.8" dx="0.6" dy="1.2" layer="1"/>
<smd name="7" x="4.445" y="-2.8" dx="0.6" dy="1.2" layer="1"/>
<smd name="8" x="4.445" y="2.8" dx="0.6" dy="1.2" layer="1"/>
<smd name="9" x="3.175" y="2.8" dx="0.6" dy="1.2" layer="1"/>
<smd name="10" x="1.905" y="2.8" dx="0.6" dy="1.2" layer="1"/>
<smd name="11" x="0.635" y="2.8" dx="0.6" dy="1.2" layer="1"/>
<smd name="12" x="-0.635" y="2.8" dx="0.6" dy="1.2" layer="1"/>
<smd name="13" x="-1.905" y="2.8" dx="0.6" dy="1.2" layer="1"/>
<smd name="14" x="-3.175" y="2.8" dx="0.6" dy="1.2" layer="1"/>
<text x="-4.318" y="-2.6035" size="1.27" layer="25" ratio="10" rot="R90">&gt;NAME</text>
<rectangle x1="-3.429" y1="-2.2733" x2="-2.921" y2="-2.1463" layer="21"/>
<rectangle x1="-3.429" y1="-2.2733" x2="-2.921" y2="-2.1463" layer="21"/>
<rectangle x1="-3.429" y1="-3.429" x2="-2.921" y2="-1.9558" layer="51"/>
<rectangle x1="-2.159" y1="-2.2733" x2="-1.651" y2="-2.1463" layer="21"/>
<rectangle x1="-2.159" y1="-3.429" x2="-1.651" y2="-1.9558" layer="51"/>
<rectangle x1="-0.889" y1="-2.2733" x2="-0.381" y2="-2.1463" layer="21"/>
<rectangle x1="-0.889" y1="-3.429" x2="-0.381" y2="-1.9558" layer="51"/>
<rectangle x1="0.381" y1="-3.429" x2="0.889" y2="-1.9558" layer="51"/>
<rectangle x1="0.381" y1="-2.2733" x2="0.889" y2="-2.1463" layer="21"/>
<rectangle x1="1.651" y1="-2.2733" x2="2.159" y2="-2.1463" layer="21"/>
<rectangle x1="1.651" y1="-3.429" x2="2.159" y2="-1.9558" layer="51"/>
<rectangle x1="2.921" y1="-2.2733" x2="3.429" y2="-2.1463" layer="21"/>
<rectangle x1="2.921" y1="-3.429" x2="3.429" y2="-1.9558" layer="51"/>
<rectangle x1="4.191" y1="-2.2733" x2="4.699" y2="-2.1463" layer="21"/>
<rectangle x1="4.191" y1="-3.429" x2="4.699" y2="-1.9558" layer="51"/>
<rectangle x1="-3.429" y1="2.1463" x2="-2.921" y2="2.2733" layer="21"/>
<rectangle x1="-3.429" y1="2.1463" x2="-2.921" y2="2.2733" layer="21"/>
<rectangle x1="-3.429" y1="2.2733" x2="-2.921" y2="3.7465" layer="51"/>
<rectangle x1="-2.159" y1="2.1463" x2="-1.651" y2="2.2733" layer="21"/>
<rectangle x1="-2.159" y1="2.2733" x2="-1.651" y2="3.7465" layer="51"/>
<rectangle x1="-0.889" y1="2.1463" x2="-0.381" y2="2.2733" layer="21"/>
<rectangle x1="-0.889" y1="2.2733" x2="-0.381" y2="3.7465" layer="51"/>
<rectangle x1="0.381" y1="2.1463" x2="0.889" y2="2.2733" layer="21"/>
<rectangle x1="0.381" y1="2.2733" x2="0.889" y2="3.7465" layer="51"/>
<rectangle x1="1.651" y1="2.1463" x2="2.159" y2="2.2733" layer="21"/>
<rectangle x1="1.651" y1="2.2733" x2="2.159" y2="3.7465" layer="51"/>
<rectangle x1="2.921" y1="2.1463" x2="3.429" y2="2.2733" layer="21"/>
<rectangle x1="2.921" y1="2.2733" x2="3.429" y2="3.7465" layer="51"/>
<rectangle x1="4.191" y1="2.1463" x2="4.699" y2="2.2733" layer="21"/>
<rectangle x1="4.191" y1="2.2733" x2="4.699" y2="3.7465" layer="51"/>
</package>
</packages>
</library>
<library name="microbuilder">
<packages>
<package name="2X05_1.27MM_SMT">
<description>&lt;p&gt;2x05 1.27mm Headers SMT (2.0mm Height)&lt;/p&gt;
4UConnector: 16846</description>
<wire x1="-5.27" y1="3.5" x2="5.27" y2="3.5" width="0.2032" layer="21"/>
<wire x1="5.27" y1="3.5" x2="5.27" y2="-3.5" width="0.2032" layer="21"/>
<wire x1="5.27" y1="-3.5" x2="1" y2="-3.5" width="0.2032" layer="21"/>
<wire x1="1" y1="-3.5" x2="-1" y2="-3.5" width="0.2032" layer="21"/>
<wire x1="-1" y1="-3.5" x2="-5.27" y2="-3.5" width="0.2032" layer="21"/>
<wire x1="-5.27" y1="-3.5" x2="-5.27" y2="3.5" width="0.2032" layer="21"/>
<wire x1="-1" y1="-3.5" x2="-1" y2="-4" width="0.2032" layer="21"/>
<wire x1="-1" y1="-4" x2="1" y2="-4" width="0.2032" layer="21"/>
<wire x1="1" y1="-4" x2="1" y2="-3.5" width="0.2032" layer="21"/>
<smd name="1" x="-2.54" y="-1.85" dx="0.65" dy="2.6" layer="1"/>
<smd name="2" x="-2.54" y="1.85" dx="0.65" dy="2.6" layer="1"/>
<smd name="3" x="-1.27" y="-1.85" dx="0.65" dy="2.6" layer="1"/>
<smd name="4" x="-1.27" y="1.85" dx="0.65" dy="2.6" layer="1"/>
<smd name="5" x="0" y="-1.85" dx="0.65" dy="2.6" layer="1"/>
<smd name="6" x="0" y="1.85" dx="0.65" dy="2.6" layer="1"/>
<smd name="7" x="1.27" y="-1.85" dx="0.65" dy="2.6" layer="1"/>
<smd name="8" x="1.27" y="1.85" dx="0.65" dy="2.6" layer="1"/>
<smd name="9" x="2.54" y="-1.85" dx="0.65" dy="2.6" layer="1"/>
<smd name="10" x="2.54" y="1.85" dx="0.65" dy="2.6" layer="1"/>
<text x="-5.199" y="3.806" size="0.8128" layer="25" ratio="18">&gt;NAME</text>
<text x="-5.199" y="-4.2465" size="0.4064" layer="27" ratio="10">&gt;VALUE</text>
<polygon width="0.127" layer="21">
<vertex x="1.016" y="-3.556"/>
<vertex x="1.016" y="-3.937"/>
<vertex x="-1.016" y="-3.937"/>
<vertex x="-1.016" y="-3.556"/>
</polygon>
</package>
</packages>
</library>
<library name="pinhead">
<description>&lt;b&gt;Simple Pin Header Connectors&lt;/b&gt;&lt;p&gt;
&lt;author&gt;Created by librarian@cadsoft.de&lt;/author&gt;</description>
<packages>
<package name="1X03">
<description>&lt;b&gt;PIN HEADER&lt;/b&gt; - 0.1"</description>
<wire x1="-3.81" y1="1.27" x2="-3.81" y2="-1.27" width="0.254" layer="21"/>
<wire x1="-3.81" y1="1.27" x2="-1.27" y2="1.27" width="0.254" layer="21"/>
<wire x1="-1.27" y1="1.27" x2="3.81" y2="1.27" width="0.254" layer="21"/>
<wire x1="3.81" y1="1.27" x2="3.81" y2="-1.27" width="0.254" layer="21"/>
<wire x1="3.81" y1="-1.27" x2="-3.81" y2="-1.27" width="0.254" layer="21"/>
<wire x1="-1.27" y1="1.27" x2="-1.27" y2="-1.27" width="0.254" layer="21"/>
<pad name="1" x="-2.54" y="0" drill="1.016" shape="square" rot="R90"/>
<pad name="2" x="0" y="0" drill="1.016" shape="octagon" rot="R90"/>
<pad name="3" x="2.54" y="0" drill="1.016" shape="octagon" rot="R90"/>
<text x="-3.8862" y="1.8288" size="1.016" layer="25" ratio="18">&gt;NAME</text>
<text x="-3.81" y="-3.175" size="0.8128" layer="27" ratio="10">&gt;VALUE</text>
<rectangle x1="-0.254" y1="-0.254" x2="0.254" y2="0.254" layer="51"/>
<rectangle x1="-2.794" y1="-0.254" x2="-2.286" y2="0.254" layer="51"/>
<rectangle x1="2.286" y1="-0.254" x2="2.794" y2="0.254" layer="51"/>
</package>
<package name="1X07">
<description>&lt;b&gt;PIN HEADER&lt;/b&gt; - 0.1"</description>
<wire x1="8.89" y1="-1.27" x2="-8.89" y2="-1.27" width="0.254" layer="21"/>
<wire x1="-8.89" y1="1.27" x2="-8.89" y2="-1.27" width="0.254" layer="21"/>
<wire x1="8.89" y1="1.27" x2="8.89" y2="-1.27" width="0.254" layer="21"/>
<wire x1="8.89" y1="1.27" x2="-6.35" y2="1.27" width="0.254" layer="21"/>
<wire x1="-6.35" y1="1.27" x2="-8.89" y2="1.27" width="0.254" layer="21"/>
<wire x1="-6.35" y1="1.27" x2="-6.35" y2="-1.27" width="0.254" layer="21"/>
<pad name="1" x="-7.62" y="0" drill="1.016" shape="square" rot="R90"/>
<pad name="2" x="-5.08" y="0" drill="1.016" shape="octagon" rot="R90"/>
<pad name="3" x="-2.54" y="0" drill="1.016" shape="octagon" rot="R90"/>
<pad name="4" x="0" y="0" drill="1.016" shape="octagon" rot="R90"/>
<pad name="5" x="2.54" y="0" drill="1.016" shape="octagon" rot="R90"/>
<pad name="6" x="5.08" y="0" drill="1.016" shape="octagon" rot="R90"/>
<pad name="7" x="7.62" y="0" drill="1.016" shape="octagon" rot="R90"/>
<text x="-8.9662" y="1.8288" size="1.016" layer="25" ratio="18">&gt;NAME</text>
<text x="-8.89" y="-3.175" size="0.8128" layer="27" ratio="10">&gt;VALUE</text>
<rectangle x1="4.826" y1="-0.254" x2="5.334" y2="0.254" layer="51"/>
<rectangle x1="2.286" y1="-0.254" x2="2.794" y2="0.254" layer="51"/>
<rectangle x1="-0.254" y1="-0.254" x2="0.254" y2="0.254" layer="51"/>
<rectangle x1="-2.794" y1="-0.254" x2="-2.286" y2="0.254" layer="51"/>
<rectangle x1="-5.334" y1="-0.254" x2="-4.826" y2="0.254" layer="51"/>
<rectangle x1="-7.874" y1="-0.254" x2="-7.366" y2="0.254" layer="51"/>
<rectangle x1="7.366" y1="-0.254" x2="7.874" y2="0.254" layer="51"/>
</package>
<package name="1X02">
<description>&lt;b&gt;PIN HEADER&lt;/b&gt; - 0.1"</description>
<wire x1="-2.54" y1="1.27" x2="-2.54" y2="-1.27" width="0.254" layer="21"/>
<wire x1="2.54" y1="-1.27" x2="-2.54" y2="-1.27" width="0.254" layer="21"/>
<wire x1="-2.54" y1="1.27" x2="0" y2="1.27" width="0.254" layer="21"/>
<wire x1="0" y1="1.27" x2="2.54" y2="1.27" width="0.254" layer="21"/>
<wire x1="2.54" y1="1.27" x2="2.54" y2="-1.27" width="0.254" layer="21"/>
<wire x1="0" y1="1.27" x2="0" y2="-1.27" width="0.254" layer="21"/>
<pad name="1" x="-1.27" y="0" drill="1.016" shape="square" rot="R90"/>
<pad name="2" x="1.27" y="0" drill="1.016" shape="octagon" rot="R90"/>
<text x="-2.6162" y="1.8288" size="1.016" layer="25" ratio="18">&gt;NAME</text>
<text x="-2.54" y="-3.175" size="0.8128" layer="27" ratio="10">&gt;VALUE</text>
<rectangle x1="-1.524" y1="-0.254" x2="-1.016" y2="0.254" layer="51"/>
<rectangle x1="1.016" y1="-0.254" x2="1.524" y2="0.254" layer="51"/>
</package>
</packages>
</library>
<library name="Seeed-OPL-ic">
<packages>
<package name="SOT-223">
<description>&lt;b&gt;SMALL OUTLINE TRANSISTOR&lt;/b&gt;</description>
<wire x1="3.277" y1="1.778" x2="3.277" y2="-1.778" width="0.2032" layer="21"/>
<wire x1="3.277" y1="-1.778" x2="-3.277" y2="-1.778" width="0.2032" layer="21"/>
<wire x1="-3.277" y1="-1.778" x2="-3.277" y2="1.778" width="0.2032" layer="21"/>
<wire x1="-3.277" y1="1.778" x2="3.277" y2="1.778" width="0.2032" layer="21"/>
<wire x1="-3.473" y1="4.483" x2="3.473" y2="4.483" width="0.0508" layer="39"/>
<wire x1="3.473" y1="-4.483" x2="-3.473" y2="-4.483" width="0.0508" layer="39"/>
<wire x1="-3.473" y1="-4.483" x2="-3.473" y2="4.483" width="0.0508" layer="39"/>
<wire x1="3.473" y1="4.483" x2="3.473" y2="-4.483" width="0.0508" layer="39"/>
<smd name="1" x="-2.286" y="-3.175" dx="1.27" dy="2.286" layer="1"/>
<smd name="2" x="0" y="-3.175" dx="1.27" dy="2.286" layer="1"/>
<smd name="3" x="2.286" y="-3.175" dx="1.27" dy="2.286" layer="1"/>
<smd name="TER" x="0" y="3.175" dx="3.556" dy="2.159" layer="1"/>
<text x="-3.81" y="-3.81" size="0.889" layer="25" ratio="11" rot="R90">&gt;NAME</text>
<text x="4.445" y="-3.81" size="0.889" layer="27" ratio="11" rot="R90">&gt;VALUE</text>
<rectangle x1="-1.6002" y1="1.8034" x2="1.6002" y2="3.6576" layer="51"/>
<rectangle x1="-0.4318" y1="-3.6576" x2="0.4318" y2="-1.8034" layer="51"/>
<rectangle x1="-2.7432" y1="-3.6576" x2="-1.8796" y2="-1.8034" layer="51"/>
<rectangle x1="1.8796" y1="-3.6576" x2="2.7432" y2="-1.8034" layer="51"/>
<rectangle x1="-1.6002" y1="1.8034" x2="1.6002" y2="3.6576" layer="51"/>
<rectangle x1="-0.4318" y1="-3.6576" x2="0.4318" y2="-1.8034" layer="51"/>
<rectangle x1="-2.7432" y1="-3.6576" x2="-1.8796" y2="-1.8034" layer="51"/>
<rectangle x1="1.8796" y1="-3.6576" x2="2.7432" y2="-1.8034" layer="51"/>
<rectangle x1="-1" y1="-1" x2="1" y2="1" layer="35"/>
</package>
</packages>
</library>
<library name="rc-master-smd">
<description>&lt;b&gt;R/C MASTER-SMD! - v1.14 (03/30/2013)&lt;/b&gt;&lt;p&gt;
&lt;p&gt;This library is a collection of SMD ONLY resistors and capacitors by various manufacturers. The pad sizes, spacing and silkscreen widths have been tweaked for use in dense fine pitch layouts where space, alignment and precision are critical. In general these components are designed for routing in grid increments of 5 mils&lt;/p&gt;
&lt;p&gt;* Silkscreen line elements are a minimum of 8 mils in width. All components have text sizes of 0.032"  or 0.04".&lt;/p&gt;
&lt;p&gt;* A silkscreen text values use a ratio of 18 in all cases.&lt;/p&gt;
&lt;p&gt;* ALL PADS AND PART OUTLINES ARE SNAPPED TO A 5 MIL GRID!&lt;/p&gt;
&lt;p&gt;* See ULP script &lt;b&gt;migrate-rc-master.ulp&lt;/b&gt; to auto-migrate parts from &lt;b&gt;rcl.lbr&lt;/b&gt;&lt;/h4&gt;.&lt;/p&gt;
&lt;p&gt;&lt;h4&gt;All components are prefixed using the following conventions:&lt;/h4&gt;&lt;/p&gt;&lt;br&gt;
&lt;table width="380" border="1" bordercolor="#000000"&gt;
  &lt;tr&gt; 
    &lt;td width="81" bgcolor="#33CCFF"&gt;&lt;div align="center"&gt;&lt;strong&gt;Prefix&lt;/strong&gt;&lt;/div&gt;&lt;/td&gt;
    &lt;td width="289" bgcolor="#33CCFF"&gt;&lt;div align="center"&gt;&lt;strong&gt;Description&lt;/strong&gt;&lt;/div&gt;&lt;/td&gt;
  &lt;/tr&gt;
  &lt;tr&gt; 
    &lt;td&gt;&lt;div align="center"&gt;CBP_&lt;/div&gt;&lt;/td&gt;
    &lt;td&gt;&lt;div align="center"&gt;Bipolar Electrolytic Types&lt;/div&gt;&lt;/td&gt;
  &lt;/tr&gt;
  &lt;tr&gt; 
    &lt;td&gt;&lt;div align="center"&gt;CCA_&lt;/div&gt;&lt;/td&gt;
    &lt;td&gt;&lt;div align="center"&gt;Chip Cap Array Types&lt;/div&gt;&lt;/td&gt;
  &lt;/tr&gt;
  &lt;tr&gt; 
    &lt;td&gt;&lt;div align="center"&gt;CP_&lt;/div&gt;&lt;/td&gt;
    &lt;td&gt;&lt;div align="center"&gt;Polarized Electrolytic/Tantalum Types&lt;/div&gt;&lt;/td&gt;
  &lt;/tr&gt;
  &lt;tr&gt; 
    &lt;td&gt;&lt;div align="center"&gt;C_&lt;/div&gt;&lt;/td&gt;
    &lt;td&gt;&lt;div align="center"&gt;Non-Polarized Film / Chip Types&lt;/div&gt;&lt;/td&gt;
  &lt;/tr&gt;
  &lt;tr&gt; 
    &lt;td&gt;&lt;div align="center"&gt;FB_&lt;/div&gt;&lt;/td&gt;
    &lt;td&gt;&lt;div align="center"&gt;Simple Ferrite Bead Types&lt;/div&gt;&lt;/td&gt;
  &lt;/tr&gt;
  &lt;tr&gt; 
    &lt;td&gt;&lt;div align="center"&gt;L_&lt;/div&gt;&lt;/td&gt;
    &lt;td&gt;&lt;div align="center"&gt;Simple Chip Inductors&lt;/div&gt;&lt;/td&gt;
  &lt;/tr&gt;
  &lt;tr&gt; 
    &lt;td&gt;&lt;div align="center"&gt;R_&lt;/div&gt;&lt;/td&gt;
    &lt;td&gt;&lt;div align="center"&gt;Resistor Types&lt;/div&gt;&lt;/td&gt;
  &lt;/tr&gt;
&lt;/table&gt;
&lt;p&gt;
As a general guideline, SMD resistors are typically rated as follows:&lt;p&gt;
0402 = 1/16 watt&lt;br&gt;
0603 = 1/10 watt&lt;br&gt;
0805 = 1/8  watt&lt;br&gt;
1206 = 1/4  watt&lt;br&gt;
2010 = 1/2  watt&lt;br&gt;
2512 = 1    watt&lt;br&gt;&lt;p&gt;
&lt;author&gt;THIS LIBRARY IS PROVIDED AS IS AND WITHOUT WARRANTY OF ANY KIND, EXPRESSED OR IMPLIED.&lt;br&gt;Copyright (C) 2007-2008, Bob Starr&lt;br&gt; 
&lt;a href="http://www.bobstarr.net"&gt;http://www.bobstarr.net&lt;/a&gt;
&lt;/author&gt;</description>
<packages>
<package name="C0603">
<description>&lt;b&gt;CAP&lt;/b&gt; - 0603</description>
<wire x1="-0.432" y1="-0.306" x2="0.432" y2="-0.306" width="0.1016" layer="51"/>
<wire x1="0.432" y1="0.306" x2="-0.432" y2="0.306" width="0.1016" layer="51"/>
<wire x1="-1.4605" y1="0.635" x2="1.4605" y2="0.635" width="0.2032" layer="21"/>
<wire x1="1.4605" y1="0.635" x2="1.4605" y2="-0.635" width="0.2032" layer="21"/>
<wire x1="1.4605" y1="-0.635" x2="-1.4605" y2="-0.635" width="0.2032" layer="21"/>
<wire x1="-1.4605" y1="-0.635" x2="-1.4605" y2="0.635" width="0.2032" layer="21"/>
<smd name="1" x="-0.762" y="0" dx="0.9" dy="0.8" layer="1"/>
<smd name="2" x="0.762" y="0" dx="0.9" dy="0.8" layer="1"/>
<text x="-1.27" y="0.9525" size="0.8128" layer="25" ratio="18">&gt;NAME</text>
<text x="-1.27" y="-1.7463" size="0.8128" layer="27" ratio="10">&gt;VALUE</text>
<rectangle x1="0.4318" y1="-0.4" x2="0.8382" y2="0.4" layer="51"/>
<rectangle x1="-0.8382" y1="-0.4" x2="-0.4318" y2="0.4" layer="51"/>
<rectangle x1="-0.1999" y1="-0.4001" x2="0.1999" y2="0.4001" layer="35"/>
<wire x1="-0.85" y1="0.4" x2="0.85" y2="0.4" width="0.0006" layer="57"/>
<wire x1="0.85" y1="0.4" x2="0.85" y2="-0.4" width="0.0006" layer="57"/>
<wire x1="0.85" y1="-0.4" x2="-0.85" y2="-0.4" width="0.0006" layer="57"/>
<wire x1="-0.85" y1="-0.4" x2="-0.85" y2="0.4" width="0.0006" layer="57"/>
</package>
</packages>
</library>
</libraries>
<attributes>
</attributes>
<variantdefs>
</variantdefs>
<classes>
<class number="0" name="default" width="0" drill="0">
</class>
</classes>
<designrules name="default">
<description language="de">&lt;b&gt;EAGLE Design Rules&lt;/b&gt;
&lt;p&gt;
Die Standard-Design-Rules sind so gewählt, dass sie für 
die meisten Anwendungen passen. Sollte ihre Platine 
besondere Anforderungen haben, treffen Sie die erforderlichen
Einstellungen hier und speichern die Design Rules unter 
einem neuen Namen ab.</description>
<description language="en">&lt;b&gt;EAGLE Design Rules&lt;/b&gt;
&lt;p&gt;
The default Design Rules have been set to cover
a wide range of applications. Your particular design
may have different requirements, so please make the
necessary adjustments and save your customized
design rules under a new name.</description>
<param name="layerSetup" value="(1*16)"/>
<param name="mtCopper" value="0.035mm 0.035mm 0.035mm 0.035mm 0.035mm 0.035mm 0.035mm 0.035mm 0.035mm 0.035mm 0.035mm 0.035mm 0.035mm 0.035mm 0.035mm 0.035mm"/>
<param name="mtIsolate" value="1.5mm 0.15mm 0.2mm 0.15mm 0.2mm 0.15mm 0.2mm 0.15mm 0.2mm 0.15mm 0.2mm 0.15mm 0.2mm 0.15mm 0.2mm"/>
<param name="mdWireWire" value="8mil"/>
<param name="mdWirePad" value="8mil"/>
<param name="mdWireVia" value="8mil"/>
<param name="mdPadPad" value="8mil"/>
<param name="mdPadVia" value="8mil"/>
<param name="mdViaVia" value="8mil"/>
<param name="mdSmdPad" value="8mil"/>
<param name="mdSmdVia" value="8mil"/>
<param name="mdSmdSmd" value="8mil"/>
<param name="mdViaViaSameLayer" value="8mil"/>
<param name="mnLayersViaInSmd" value="2"/>
<param name="mdCopperDimension" value="40mil"/>
<param name="mdDrill" value="8mil"/>
<param name="mdSmdStop" value="0mil"/>
<param name="msWidth" value="10mil"/>
<param name="msDrill" value="24mil"/>
<param name="msMicroVia" value="9.99mm"/>
<param name="msBlindViaRatio" value="0.5"/>
<param name="rvPadTop" value="0.25"/>
<param name="rvPadInner" value="0.25"/>
<param name="rvPadBottom" value="0.25"/>
<param name="rvViaOuter" value="0.25"/>
<param name="rvViaInner" value="0.25"/>
<param name="rvMicroViaOuter" value="0.25"/>
<param name="rvMicroViaInner" value="0.25"/>
<param name="rlMinPadTop" value="10mil"/>
<param name="rlMaxPadTop" value="20mil"/>
<param name="rlMinPadInner" value="10mil"/>
<param name="rlMaxPadInner" value="20mil"/>
<param name="rlMinPadBottom" value="10mil"/>
<param name="rlMaxPadBottom" value="20mil"/>
<param name="rlMinViaOuter" value="8mil"/>
<param name="rlMaxViaOuter" value="20mil"/>
<param name="rlMinViaInner" value="8mil"/>
<param name="rlMaxViaInner" value="20mil"/>
<param name="rlMinMicroViaOuter" value="4mil"/>
<param name="rlMaxMicroViaOuter" value="20mil"/>
<param name="rlMinMicroViaInner" value="4mil"/>
<param name="rlMaxMicroViaInner" value="20mil"/>
<param name="psTop" value="-1"/>
<param name="psBottom" value="-1"/>
<param name="psFirst" value="-1"/>
<param name="psElongationLong" value="100"/>
<param name="psElongationOffset" value="100"/>
<param name="mvStopFrame" value="1"/>
<param name="mvCreamFrame" value="0"/>
<param name="mlMinStopFrame" value="4mil"/>
<param name="mlMaxStopFrame" value="4mil"/>
<param name="mlMinCreamFrame" value="0mil"/>
<param name="mlMaxCreamFrame" value="0mil"/>
<param name="mlViaStopLimit" value="0mil"/>
<param name="srRoundness" value="0"/>
<param name="srMinRoundness" value="0mil"/>
<param name="srMaxRoundness" value="0mil"/>
<param name="slThermalIsolate" value="10mil"/>
<param name="slThermalsForVias" value="0"/>
<param name="dpMaxLengthDifference" value="10mm"/>
<param name="dpGapFactor" value="2.5"/>
<param name="checkGrid" value="0"/>
<param name="checkAngle" value="0"/>
<param name="checkFont" value="1"/>
<param name="checkRestrict" value="1"/>
<param name="useDiameter" value="13"/>
<param name="maxErrors" value="50"/>
</designrules>
<autorouter>
<pass name="Default">
<param name="RoutingGrid" value="50mil"/>
<param name="AutoGrid" value="1"/>
<param name="Efforts" value="0"/>
<param name="TopRouterVariant" value="1"/>
<param name="tpViaShape" value="round"/>
<param name="PrefDir.1" value="|"/>
<param name="PrefDir.2" value="0"/>
<param name="PrefDir.3" value="0"/>
<param name="PrefDir.4" value="0"/>
<param name="PrefDir.5" value="0"/>
<param name="PrefDir.6" value="0"/>
<param name="PrefDir.7" value="0"/>
<param name="PrefDir.8" value="0"/>
<param name="PrefDir.9" value="0"/>
<param name="PrefDir.10" value="0"/>
<param name="PrefDir.11" value="0"/>
<param name="PrefDir.12" value="0"/>
<param name="PrefDir.13" value="0"/>
<param name="PrefDir.14" value="0"/>
<param name="PrefDir.15" value="0"/>
<param name="PrefDir.16" value="-"/>
<param name="cfVia" value="8"/>
<param name="cfNonPref" value="5"/>
<param name="cfChangeDir" value="2"/>
<param name="cfOrthStep" value="2"/>
<param name="cfDiagStep" value="3"/>
<param name="cfExtdStep" value="0"/>
<param name="cfBonusStep" value="1"/>
<param name="cfMalusStep" value="1"/>
<param name="cfPadImpact" value="4"/>
<param name="cfSmdImpact" value="4"/>
<param name="cfBusImpact" value="0"/>
<param name="cfHugging" value="3"/>
<param name="cfAvoid" value="4"/>
<param name="cfPolygon" value="10"/>
<param name="cfBase.1" value="0"/>
<param name="cfBase.2" value="1"/>
<param name="cfBase.3" value="1"/>
<param name="cfBase.4" value="1"/>
<param name="cfBase.5" value="1"/>
<param name="cfBase.6" value="1"/>
<param name="cfBase.7" value="1"/>
<param name="cfBase.8" value="1"/>
<param name="cfBase.9" value="1"/>
<param name="cfBase.10" value="1"/>
<param name="cfBase.11" value="1"/>
<param name="cfBase.12" value="1"/>
<param name="cfBase.13" value="1"/>
<param name="cfBase.14" value="1"/>
<param name="cfBase.15" value="1"/>
<param name="cfBase.16" value="0"/>
<param name="mnVias" value="20"/>
<param name="mnSegments" value="9999"/>
<param name="mnExtdSteps" value="9999"/>
<param name="mnRipupLevel" value="10"/>
<param name="mnRipupSteps" value="100"/>
<param name="mnRipupTotal" value="100"/>
</pass>
<pass name="Follow-me" refer="Default" active="yes">
</pass>
<pass name="Busses" refer="Default" active="yes">
<param name="cfNonPref" value="4"/>
<param name="cfBusImpact" value="4"/>
<param name="cfHugging" value="0"/>
<param name="mnVias" value="0"/>
</pass>
<pass name="Route" refer="Default" active="yes">
</pass>
<pass name="Optimize1" refer="Default" active="yes">
<param name="cfVia" value="99"/>
<param name="cfExtdStep" value="10"/>
<param name="cfHugging" value="1"/>
<param name="mnExtdSteps" value="1"/>
<param name="mnRipupLevel" value="0"/>
</pass>
<pass name="Optimize2" refer="Optimize1" active="yes">
<param name="cfNonPref" value="0"/>
<param name="cfChangeDir" value="6"/>
<param name="cfExtdStep" value="0"/>
<param name="cfBonusStep" value="2"/>
<param name="cfMalusStep" value="2"/>
<param name="cfPadImpact" value="2"/>
<param name="cfSmdImpact" value="2"/>
<param name="cfHugging" value="0"/>
</pass>
<pass name="Optimize3" refer="Optimize2" active="yes">
<param name="cfChangeDir" value="8"/>
<param name="cfPadImpact" value="0"/>
<param name="cfSmdImpact" value="0"/>
</pass>
<pass name="Optimize4" refer="Optimize3" active="yes">
<param name="cfChangeDir" value="25"/>
</pass>
</autorouter>
<elements>
<element name="U$1" library="atsamd10c14a" package="SO014" value="ATSAMD10C14A" x="22.098" y="10.414" smashed="yes"/>
<element name="X1" library="microbuilder" package="2X05_1.27MM_SMT" value="" x="35.814" y="10.668" smashed="yes">
<attribute name="VALUE" x="30.615" y="6.4215" size="0.4064" layer="27" ratio="10"/>
</element>
<element name="JP1" library="pinhead" package="1X03" value="" x="49.022" y="4.572" smashed="yes" rot="R270">
<attribute name="VALUE" x="45.847" y="8.382" size="0.8128" layer="27" ratio="10" rot="R270"/>
</element>
<element name="JP2" library="pinhead" package="1X03" value="" x="44.704" y="4.572" smashed="yes" rot="R270">
<attribute name="VALUE" x="41.529" y="8.382" size="0.8128" layer="27" ratio="10" rot="R270"/>
</element>
<element name="JP3" library="pinhead" package="1X07" value="" x="1.778" y="10.668" smashed="yes" rot="R90">
<attribute name="VALUE" x="4.953" y="1.778" size="0.8128" layer="27" ratio="10" rot="R90"/>
</element>
<element name="JP4" library="pinhead" package="1X02" value="" x="49.276" y="21.082" smashed="yes" rot="R90">
<attribute name="VALUE" x="52.451" y="18.542" size="0.8128" layer="27" ratio="10" rot="R90"/>
</element>
<element name="U1" library="Seeed-OPL-ic" package="SOT-223" value="CJT1117-3.3-SOT223" x="37.846" y="20.32" smashed="yes" rot="R90">
<attribute name="MPN" value="CJT1117-3.3" x="37.846" y="20.32" size="1.778" layer="27" font="vector" ratio="15" rot="R90" display="off"/>
</element>
<element name="JP5" library="pinhead" package="1X02" value="" x="1.778" y="22.098" smashed="yes" rot="R90">
<attribute name="VALUE" x="4.953" y="19.558" size="0.8128" layer="27" ratio="10" rot="R90"/>
</element>
<element name="JP6" library="pinhead" package="1X02" value="" x="4.318" y="22.098" smashed="yes" rot="R90">
<attribute name="VALUE" x="7.493" y="19.558" size="0.8128" layer="27" ratio="10" rot="R90"/>
</element>
<element name="C1" library="rc-master-smd" package="C0603" value="" x="44.831" y="21.336" smashed="yes" rot="R90">
<attribute name="VALUE" x="46.5773" y="20.066" size="0.8128" layer="27" ratio="10" rot="R90"/>
</element>
<element name="C3" library="rc-master-smd" package="C0603" value="" x="17.018" y="10.414" smashed="yes" rot="R90">
<attribute name="VALUE" x="18.7643" y="9.144" size="0.8128" layer="27" ratio="10" rot="R90"/>
</element>
<element name="C4" library="rc-master-smd" package="C0603" value="" x="29.718" y="22.225" smashed="yes" rot="R90">
<attribute name="VALUE" x="31.4643" y="20.955" size="0.8128" layer="27" ratio="10" rot="R90"/>
</element>
<element name="C5" library="rc-master-smd" package="C0603" value="" x="31.496" y="22.098" smashed="yes" rot="R90">
<attribute name="VALUE" x="33.2423" y="20.828" size="0.8128" layer="27" ratio="10" rot="R90"/>
</element>
<element name="C2" library="rc-master-smd" package="C0603" value="" x="46.482" y="21.336" smashed="yes" rot="R90">
<attribute name="VALUE" x="48.2283" y="20.066" size="0.8128" layer="27" ratio="10" rot="R90"/>
</element>
<element name="C6" library="rc-master-smd" package="C0603" value="" x="21.971" y="16.002" smashed="yes" rot="R180">
<attribute name="VALUE" x="23.241" y="17.7483" size="0.8128" layer="27" ratio="10" rot="R180"/>
</element>
</elements>
<signals>
<signal name="N$1">
<contactref element="U$1" pad="7"/>
<wire x1="26.543" y1="7.614" x2="27.172" y2="7.614" width="0.254" layer="1"/>
<wire x1="27.172" y1="7.614" x2="28.194" y2="8.636" width="0.254" layer="1"/>
<wire x1="28.194" y1="8.636" x2="28.194" y2="14.478" width="0.254" layer="1"/>
<wire x1="28.194" y1="14.478" x2="28.702" y2="14.986" width="0.254" layer="1"/>
<wire x1="28.702" y1="14.986" x2="32.766" y2="14.986" width="0.254" layer="1"/>
<wire x1="32.766" y1="14.986" x2="33.274" y2="14.478" width="0.254" layer="1"/>
<contactref element="X1" pad="4"/>
<wire x1="33.274" y1="14.478" x2="34.036" y2="14.478" width="0.254" layer="1"/>
<wire x1="34.036" y1="14.478" x2="34.544" y2="13.97" width="0.254" layer="1"/>
<wire x1="34.544" y1="13.97" x2="34.544" y2="12.518" width="0.254" layer="1"/>
</signal>
<signal name="N$2">
<contactref element="U$1" pad="8"/>
<wire x1="33.528" y1="16.51" x2="34.544" y2="15.494" width="0.254" layer="1"/>
<wire x1="26.543" y1="13.214" x2="27.432" y2="14.103" width="0.254" layer="1"/>
<wire x1="27.432" y1="14.103" x2="27.432" y2="15.748" width="0.254" layer="1"/>
<wire x1="27.432" y1="15.748" x2="28.194" y2="16.51" width="0.254" layer="1"/>
<wire x1="28.194" y1="16.51" x2="33.528" y2="16.51" width="0.254" layer="1"/>
<contactref element="X1" pad="2"/>
<via x="34.544" y="15.494" extent="1-16" drill="0.508"/>
<wire x1="34.544" y1="15.494" x2="33.274" y2="14.224" width="0.254" layer="16"/>
<wire x1="33.274" y1="14.224" x2="33.274" y2="12.518" width="0.254" layer="16"/>
<via x="33.274" y="12.518" extent="1-16" drill="0.508"/>
<wire x1="33.274" y1="12.518" x2="33.274" y2="11.43" width="0.254" layer="1"/>
</signal>
<signal name="N$3">
<contactref element="X1" pad="10"/>
<contactref element="U$1" pad="6"/>
<wire x1="25.273" y1="7.614" x2="25.273" y2="6.477" width="0.254" layer="1"/>
<wire x1="25.273" y1="6.477" x2="26.162" y2="5.588" width="0.254" layer="1"/>
<wire x1="26.162" y1="5.588" x2="39.624" y2="5.588" width="0.254" layer="1"/>
<wire x1="39.624" y1="5.588" x2="40.386" y2="6.35" width="0.254" layer="1"/>
<wire x1="40.386" y1="6.35" x2="40.386" y2="10.486" width="0.254" layer="1"/>
<wire x1="40.386" y1="10.486" x2="38.354" y2="12.518" width="0.254" layer="1"/>
</signal>
<signal name="N$9">
<contactref element="U$1" pad="1"/>
<contactref element="JP1" pad="2"/>
<contactref element="JP2" pad="2"/>
<wire x1="49.022" y1="4.572" x2="44.704" y2="4.572" width="0.254" layer="1"/>
<wire x1="44.704" y1="4.572" x2="43.18" y2="4.572" width="0.254" layer="1"/>
<wire x1="43.18" y1="4.572" x2="41.656" y2="3.048" width="0.254" layer="1"/>
<wire x1="41.656" y1="3.048" x2="18.288" y2="3.048" width="0.254" layer="1"/>
<wire x1="18.288" y1="3.048" x2="16.51" y2="4.826" width="0.254" layer="1"/>
<wire x1="16.51" y1="4.826" x2="16.51" y2="6.604" width="0.254" layer="1"/>
<wire x1="16.51" y1="6.604" x2="17.526" y2="7.62" width="0.254" layer="1"/>
<wire x1="17.526" y1="7.62" x2="18.917" y2="7.62" width="0.254" layer="1"/>
<wire x1="18.917" y1="7.62" x2="18.923" y2="7.614" width="0.254" layer="1"/>
</signal>
<signal name="N$10">
<contactref element="U$1" pad="14"/>
<contactref element="JP1" pad="3"/>
<contactref element="JP2" pad="3"/>
<wire x1="44.704" y1="2.032" x2="49.022" y2="2.032" width="0.254" layer="1"/>
<wire x1="44.704" y1="2.032" x2="18.034" y2="2.032" width="0.254" layer="1"/>
<wire x1="18.034" y1="2.032" x2="15.494" y2="4.572" width="0.254" layer="1"/>
<wire x1="15.494" y1="4.572" x2="15.494" y2="11.938" width="0.254" layer="1"/>
<wire x1="15.494" y1="11.938" x2="17.018" y2="13.462" width="0.254" layer="1"/>
<wire x1="17.018" y1="13.462" x2="18.675" y2="13.462" width="0.254" layer="1"/>
<wire x1="18.675" y1="13.462" x2="18.923" y2="13.214" width="0.254" layer="1"/>
</signal>
<signal name="N$11">
<contactref element="U$1" pad="4"/>
<contactref element="JP3" pad="4"/>
<wire x1="22.733" y1="7.614" x2="22.733" y2="5.969" width="0.254" layer="1"/>
<wire x1="22.733" y1="5.969" x2="22.606" y2="5.588" width="0.254" layer="1"/>
<wire x1="22.606" y1="5.588" x2="22.352" y2="5.334" width="0.254" layer="1"/>
<via x="22.352" y="5.334" extent="1-16" drill="0.508"/>
<wire x1="22.352" y1="5.334" x2="14.986" y2="5.334" width="0.254" layer="16"/>
<wire x1="14.986" y1="5.334" x2="13.97" y2="6.35" width="0.254" layer="16"/>
<via x="13.97" y="6.35" extent="1-16" drill="0.508"/>
<wire x1="13.97" y1="6.35" x2="9.652" y2="10.668" width="0.254" layer="1"/>
<wire x1="9.652" y1="10.668" x2="1.778" y2="10.668" width="0.254" layer="1"/>
</signal>
<signal name="N$12">
<contactref element="U$1" pad="5"/>
<contactref element="JP3" pad="3"/>
<wire x1="24.003" y1="7.614" x2="24.003" y2="5.207" width="0.254" layer="1"/>
<wire x1="24.003" y1="5.207" x2="22.86" y2="4.064" width="0.254" layer="1"/>
<via x="22.86" y="4.064" extent="1-16" drill="0.508"/>
<wire x1="22.86" y1="4.064" x2="21.844" y2="4.064" width="0.254" layer="16"/>
<wire x1="21.844" y1="4.064" x2="21.59" y2="4.318" width="0.254" layer="16"/>
<wire x1="21.59" y1="4.318" x2="13.462" y2="4.318" width="0.254" layer="16"/>
<wire x1="13.462" y1="4.318" x2="12.954" y2="4.826" width="0.254" layer="16"/>
<via x="12.954" y="4.826" extent="1-16" drill="0.508"/>
<wire x1="12.954" y1="4.826" x2="9.652" y2="8.128" width="0.254" layer="1"/>
<wire x1="9.652" y1="8.128" x2="1.778" y2="8.128" width="0.254" layer="1"/>
</signal>
<signal name="N$13">
<contactref element="U$1" pad="13"/>
<contactref element="JP3" pad="7"/>
<wire x1="1.778" y1="18.288" x2="12.7" y2="18.288" width="0.254" layer="1"/>
<wire x1="12.7" y1="18.288" x2="15.24" y2="15.748" width="0.254" layer="1"/>
<wire x1="15.24" y1="15.748" x2="18.542" y2="15.748" width="0.254" layer="1"/>
<wire x1="18.542" y1="15.748" x2="20.193" y2="14.097" width="0.254" layer="1"/>
<wire x1="20.193" y1="14.097" x2="20.193" y2="13.214" width="0.254" layer="1"/>
</signal>
<signal name="GND">
<contactref element="U$1" pad="11"/>
<contactref element="X1" pad="5"/>
<contactref element="X1" pad="3"/>
<contactref element="X1" pad="9"/>
<wire x1="38.354" y1="8.818" x2="38.354" y2="6.604" width="0.254" layer="1"/>
<wire x1="38.354" y1="6.604" x2="38.1" y2="6.35" width="0.254" layer="1"/>
<wire x1="38.1" y1="6.35" x2="36.322" y2="6.35" width="0.254" layer="1"/>
<wire x1="36.322" y1="6.35" x2="35.814" y2="6.858" width="0.254" layer="1"/>
<wire x1="35.814" y1="6.858" x2="35.814" y2="8.818" width="0.254" layer="1"/>
<wire x1="34.544" y1="8.818" x2="35.814" y2="8.818" width="0.254" layer="1"/>
<wire x1="22.733" y1="13.214" x2="22.733" y2="15.621" width="0.254" layer="1"/>
<wire x1="22.733" y1="15.621" x2="22.86" y2="15.748" width="0.254" layer="1"/>
<polygon width="0.254" layer="16" isolate="0.508">
<vertex x="1.27" y="24.638"/>
<vertex x="49.53" y="24.638"/>
<vertex x="49.53" y="0.762"/>
<vertex x="1.27" y="0.762"/>
</polygon>
<polygon width="0.254" layer="1" isolate="0.508" rank="3">
<vertex x="1.524" y="24.638"/>
<vertex x="49.784" y="24.638"/>
<vertex x="49.784" y="0.762"/>
<vertex x="1.524" y="0.762"/>
</polygon>
<wire x1="34.544" y1="8.818" x2="34.544" y2="9.144" width="0.254" layer="1"/>
<wire x1="34.544" y1="9.144" x2="34.798" y2="9.398" width="0.254" layer="1"/>
<via x="34.798" y="9.398" extent="1-16" drill="0.508"/>
<wire x1="34.798" y1="9.398" x2="34.798" y2="8.382" width="0.254" layer="16"/>
<wire x1="34.798" y1="8.382" x2="35.052" y2="8.382" width="0.254" layer="16"/>
<wire x1="35.052" y1="8.382" x2="35.814" y2="9.144" width="0.254" layer="16"/>
<wire x1="22.733" y1="13.214" x2="22.866" y2="13.214" width="0.254" layer="1"/>
<wire x1="22.866" y1="13.214" x2="22.86" y2="12.446" width="0.254" layer="1"/>
<via x="22.86" y="12.446" extent="1-16" drill="0.508"/>
<wire x1="22.86" y1="12.446" x2="22.606" y2="12.446" width="0.254" layer="16"/>
<wire x1="22.606" y1="12.446" x2="22.352" y2="12.192" width="0.254" layer="16"/>
<contactref element="JP1" pad="1"/>
<contactref element="JP2" pad="1"/>
<via x="48.26" y="16.002" extent="1-16" drill="0.508"/>
<via x="48.006" y="13.97" extent="1-16" drill="0.508"/>
<via x="48.006" y="11.938" extent="1-16" drill="0.508"/>
<via x="47.752" y="9.906" extent="1-16" drill="0.508"/>
<contactref element="JP4" pad="1"/>
<via x="28.956" y="7.112" extent="1-16" drill="0.508"/>
<contactref element="U1" pad="1"/>
<contactref element="JP5" pad="2"/>
<contactref element="JP5" pad="1"/>
<contactref element="JP6" pad="1"/>
<contactref element="JP6" pad="2"/>
<via x="8.382" y="22.86" extent="1-16" drill="0.508"/>
<via x="8.382" y="20.828" extent="1-16" drill="0.508"/>
<via x="10.16" y="20.828" extent="1-16" drill="0.508"/>
<via x="10.16" y="22.86" extent="1-16" drill="0.508"/>
<contactref element="C5" pad="1"/>
<contactref element="C4" pad="1"/>
<contactref element="C3" pad="1"/>
<contactref element="C1" pad="1"/>
<wire x1="31.496" y1="21.336" x2="31.369" y2="21.209" width="0.254" layer="1"/>
<wire x1="31.369" y1="21.209" x2="31.369" y2="20.955" width="0.254" layer="1"/>
<via x="31.369" y="20.955" extent="1-16" drill="0.508"/>
<wire x1="31.369" y1="20.955" x2="31.623" y2="20.701" width="0.254" layer="16"/>
<wire x1="31.623" y1="20.701" x2="31.623" y2="20.066" width="0.254" layer="16"/>
<wire x1="29.718" y1="21.463" x2="29.972" y2="21.209" width="0.254" layer="1"/>
<wire x1="29.972" y1="21.209" x2="29.972" y2="21.082" width="0.254" layer="1"/>
<via x="29.972" y="21.082" extent="1-16" drill="0.508"/>
<wire x1="29.972" y1="21.082" x2="30.353" y2="20.701" width="0.254" layer="16"/>
<wire x1="30.353" y1="20.701" x2="30.734" y2="20.701" width="0.254" layer="16"/>
<contactref element="C2" pad="1"/>
<wire x1="17.018" y1="9.652" x2="16.891" y2="9.525" width="0.254" layer="1"/>
<wire x1="16.891" y1="9.525" x2="16.891" y2="8.509" width="0.254" layer="1"/>
<via x="16.891" y="8.509" extent="1-16" drill="0.508"/>
<wire x1="16.891" y1="8.509" x2="16.891" y2="8.001" width="0.254" layer="16"/>
<via x="17.907" y="19.939" extent="1-16" drill="0.508"/>
<via x="23.368" y="21.717" extent="1-16" drill="0.508"/>
<via x="22.225" y="9.271" extent="1-16" drill="0.508"/>
<via x="25.908" y="11.684" extent="1-16" drill="0.508"/>
<contactref element="C6" pad="1"/>
</signal>
<signal name="VDD">
<contactref element="U$1" pad="12"/>
<contactref element="X1" pad="1"/>
<wire x1="21.463" y1="15.621" x2="21.59" y2="15.748" width="0.254" layer="1"/>
<wire x1="21.463" y1="14.224" x2="21.463" y2="14.351" width="0.254" layer="1"/>
<wire x1="33.274" y1="8.818" x2="32.584" y2="8.818" width="0.254" layer="1"/>
<wire x1="32.584" y1="8.818" x2="32.258" y2="9.144" width="0.254" layer="1"/>
<via x="32.258" y="9.144" extent="1-16" drill="0.508"/>
<wire x1="32.258" y1="9.144" x2="32.004" y2="9.144" width="0.254" layer="16"/>
<wire x1="32.004" y1="9.144" x2="31.75" y2="8.89" width="0.254" layer="16"/>
<wire x1="31.75" y1="8.89" x2="30.226" y2="8.89" width="0.254" layer="16"/>
<wire x1="30.226" y1="8.89" x2="28.702" y2="10.414" width="0.254" layer="16"/>
<wire x1="28.702" y1="10.414" x2="22.352" y2="10.414" width="0.254" layer="16"/>
<wire x1="22.352" y1="10.414" x2="21.336" y2="11.43" width="0.254" layer="16"/>
<wire x1="21.336" y1="11.43" x2="21.336" y2="11.938" width="0.254" layer="16"/>
<wire x1="21.336" y1="11.938" x2="21.336" y2="14.097" width="0.254" layer="16"/>
<wire x1="21.336" y1="14.097" x2="21.463" y2="14.224" width="0.254" layer="16"/>
<via x="21.463" y="14.224" extent="1-16" drill="0.508"/>
<wire x1="21.463" y1="14.224" x2="21.463" y2="13.214" width="0.254" layer="1"/>
<wire x1="21.463" y1="14.224" x2="21.59" y2="14.351" width="0.254" layer="1"/>
<wire x1="21.59" y1="14.351" x2="21.59" y2="15.494" width="0.254" layer="1"/>
<wire x1="21.59" y1="15.494" x2="21.59" y2="22.479" width="0.254" layer="1"/>
<wire x1="21.59" y1="22.479" x2="22.098" y2="23.368" width="0.254" layer="1"/>
<wire x1="21.463" y1="15.621" x2="21.59" y2="15.494" width="0.254" layer="1"/>
<contactref element="U1" pad="2"/>
<contactref element="U1" pad="TER"/>
<wire x1="22.098" y1="23.368" x2="29.718" y2="23.368" width="0.254" layer="1"/>
<wire x1="29.718" y1="23.368" x2="31.623" y2="23.368" width="0.254" layer="1"/>
<wire x1="31.623" y1="23.368" x2="36.322" y2="23.368" width="0.254" layer="1"/>
<wire x1="36.322" y1="23.368" x2="39.37" y2="20.32" width="0.254" layer="1"/>
<wire x1="39.37" y1="20.32" x2="41.021" y2="20.32" width="0.254" layer="1"/>
<contactref element="C3" pad="2"/>
<contactref element="C4" pad="2"/>
<contactref element="C5" pad="2"/>
<wire x1="17.018" y1="11.176" x2="17.145" y2="11.303" width="0.254" layer="1"/>
<wire x1="17.145" y1="11.303" x2="17.145" y2="11.43" width="0.254" layer="1"/>
<via x="17.145" y="11.43" extent="1-16" drill="0.508"/>
<wire x1="17.145" y1="11.43" x2="17.653" y2="11.938" width="0.254" layer="16"/>
<wire x1="17.653" y1="11.938" x2="21.336" y2="11.938" width="0.254" layer="16"/>
<wire x1="41.021" y1="20.32" x2="41.148" y2="20.193" width="0.254" layer="1"/>
<wire x1="31.496" y1="22.86" x2="31.623" y2="22.987" width="0.254" layer="1"/>
<wire x1="31.623" y1="22.987" x2="31.623" y2="23.368" width="0.254" layer="1"/>
<wire x1="29.718" y1="22.987" x2="29.718" y2="23.368" width="0.254" layer="1"/>
<contactref element="C6" pad="2"/>
<wire x1="36.322" y1="23.368" x2="34.671" y2="20.32" width="0" layer="19" extent="1-1"/>
<wire x1="21.209" y1="16.002" x2="21.463" y2="15.621" width="0" layer="19" extent="1-1"/>
</signal>
<signal name="N$4">
<contactref element="U$1" pad="10"/>
<contactref element="JP3" pad="1"/>
<wire x1="1.778" y1="3.048" x2="9.398" y2="3.048" width="0.254" layer="1"/>
<wire x1="9.398" y1="3.048" x2="9.652" y2="3.302" width="0.254" layer="1"/>
<via x="9.652" y="3.302" extent="1-16" drill="0.508"/>
<wire x1="9.652" y1="3.302" x2="11.684" y2="5.334" width="0.254" layer="16"/>
<wire x1="11.684" y1="5.334" x2="11.684" y2="15.494" width="0.254" layer="16"/>
<wire x1="11.684" y1="15.494" x2="12.192" y2="16.002" width="0.254" layer="16"/>
<wire x1="12.192" y1="16.002" x2="24.13" y2="16.002" width="0.254" layer="16"/>
<via x="24.13" y="16.002" extent="1-16" drill="0.508"/>
<wire x1="24.13" y1="16.002" x2="24.003" y2="15.367" width="0.254" layer="1"/>
<wire x1="24.003" y1="15.367" x2="24.003" y2="13.214" width="0.254" layer="1"/>
</signal>
<signal name="N$5">
<contactref element="U$1" pad="9"/>
<contactref element="JP3" pad="2"/>
<wire x1="1.778" y1="5.588" x2="9.398" y2="5.588" width="0.254" layer="1"/>
<via x="9.398" y="5.588" extent="1-16" drill="0.508"/>
<wire x1="9.398" y1="5.588" x2="10.668" y2="6.858" width="0.254" layer="16"/>
<wire x1="10.668" y1="6.858" x2="10.668" y2="16.51" width="0.254" layer="16"/>
<wire x1="10.668" y1="16.51" x2="11.176" y2="17.018" width="0.254" layer="16"/>
<wire x1="11.176" y1="17.018" x2="25.146" y2="17.018" width="0.254" layer="16"/>
<wire x1="25.146" y1="17.018" x2="25.4" y2="16.764" width="0.254" layer="16"/>
<wire x1="25.4" y1="16.764" x2="25.654" y2="16.764" width="0.254" layer="16"/>
<wire x1="25.654" y1="16.764" x2="26.162" y2="16.002" width="0.254" layer="16"/>
<via x="26.162" y="16.002" extent="1-16" drill="0.508"/>
<wire x1="26.162" y1="16.002" x2="26.162" y2="14.732" width="0.254" layer="1"/>
<wire x1="26.162" y1="14.732" x2="25.4" y2="13.97" width="0.254" layer="1"/>
<wire x1="25.4" y1="13.97" x2="25.4" y2="13.341" width="0.254" layer="1"/>
<wire x1="25.4" y1="13.341" x2="25.273" y2="13.214" width="0.254" layer="1"/>
</signal>
<signal name="N$6">
<contactref element="U$1" pad="2"/>
<contactref element="JP3" pad="6"/>
<wire x1="1.778" y1="15.748" x2="12.192" y2="15.748" width="0.254" layer="1"/>
<wire x1="12.192" y1="15.748" x2="13.462" y2="14.478" width="0.254" layer="1"/>
<wire x1="13.462" y1="14.478" x2="13.462" y2="12.192" width="0.254" layer="1"/>
<via x="13.462" y="12.192" extent="1-16" drill="0.508"/>
<wire x1="13.462" y1="12.192" x2="16.002" y2="9.652" width="0.254" layer="16"/>
<wire x1="16.002" y1="9.652" x2="20.066" y2="9.652" width="0.254" layer="16"/>
<via x="20.066" y="9.652" extent="1-16" drill="0.508"/>
<wire x1="20.066" y1="9.652" x2="20.193" y2="9.525" width="0.254" layer="1"/>
<wire x1="20.193" y1="9.525" x2="20.193" y2="7.614" width="0.254" layer="1"/>
</signal>
<signal name="N$7">
<contactref element="U$1" pad="3"/>
<contactref element="JP3" pad="5"/>
<wire x1="21.463" y1="7.614" x2="21.336" y2="7.487" width="0.254" layer="1"/>
<wire x1="21.336" y1="7.487" x2="21.336" y2="6.858" width="0.254" layer="1"/>
<wire x1="21.336" y1="6.858" x2="21.082" y2="6.35" width="0.254" layer="1"/>
<via x="21.082" y="6.35" extent="1-16" drill="0.508"/>
<wire x1="21.082" y1="6.35" x2="21.082" y2="6.096" width="0.254" layer="16"/>
<wire x1="21.082" y1="6.096" x2="16.764" y2="6.096" width="0.254" layer="16"/>
<wire x1="16.764" y1="6.096" x2="13.716" y2="9.144" width="0.254" layer="16"/>
<wire x1="13.716" y1="9.144" x2="13.716" y2="9.398" width="0.254" layer="16"/>
<via x="13.716" y="9.398" extent="1-16" drill="0.508"/>
<wire x1="13.716" y1="9.398" x2="9.906" y2="13.208" width="0.254" layer="1"/>
<wire x1="9.906" y1="13.208" x2="1.778" y2="13.208" width="0.254" layer="1"/>
</signal>
<signal name="N$8">
<wire x1="49.784" y1="17.78" x2="44.45" y2="17.78" width="0.254" layer="1"/>
<wire x1="44.45" y1="17.78" x2="44.45" y2="18.288" width="0.254" layer="1"/>
</signal>
<signal name="N$14">
<wire x1="44.45" y1="21.082" x2="44.45" y2="20.32" width="0.254" layer="1"/>
</signal>
<signal name="+5V">
<contactref element="JP4" pad="2"/>
<contactref element="U1" pad="3"/>
<wire x1="41.021" y1="22.606" x2="41.275" y2="22.352" width="0.254" layer="1"/>
<wire x1="41.275" y1="22.352" x2="41.91" y2="22.352" width="0.254" layer="1"/>
<wire x1="41.91" y1="22.352" x2="42.164" y2="22.352" width="0.254" layer="1"/>
<wire x1="42.164" y1="22.352" x2="49.276" y2="22.352" width="0.254" layer="1"/>
<wire x1="42.164" y1="22.352" x2="42.418" y2="22.606" width="0.254" layer="1"/>
<wire x1="42.418" y1="22.606" x2="44.958" y2="22.606" width="0.254" layer="1"/>
<wire x1="41.91" y1="22.352" x2="42.418" y2="22.86" width="0.254" layer="1"/>
<wire x1="42.418" y1="22.86" x2="44.958" y2="22.86" width="0.254" layer="1"/>
<wire x1="41.021" y1="22.606" x2="41.529" y2="23.114" width="0.254" layer="1"/>
<wire x1="41.529" y1="23.114" x2="41.656" y2="23.114" width="0.254" layer="1"/>
<wire x1="41.656" y1="23.114" x2="45.212" y2="23.114" width="0.254" layer="1"/>
<wire x1="41.656" y1="23.114" x2="41.91" y2="22.86" width="0.254" layer="1"/>
<wire x1="41.91" y1="22.86" x2="42.418" y2="22.86" width="0.254" layer="1"/>
<contactref element="C1" pad="2"/>
<wire x1="44.958" y1="22.606" x2="45.466" y2="22.098" width="0.254" layer="1"/>
<wire x1="45.466" y1="22.098" x2="44.831" y2="22.098" width="0.254" layer="1"/>
<contactref element="C2" pad="2"/>
<wire x1="45.466" y1="22.098" x2="46.482" y2="22.098" width="0" layer="19" extent="1-1"/>
</signal>
</signals>
</board>
</drawing>
</eagle>
